…
#### Find some cows with errors

``` r
merged_by_cow %>% 
  dplyr::count(.data$cow_id, .data$outlier_pos_neg) %>% 
  dplyr::mutate(dplyr::across('outlier_pos_neg', ~tidyr::replace_na(.x, 'not_error'))) %>%
  tidyr::pivot_wider(names_from = 'outlier_pos_neg', values_from = 'n') %>%
        dplyr::rowwise() %>%
        dplyr::mutate(total_outliers = sum(
          dplyr::c_across(colnames(.)[colnames(.) %in% c('neg', 'neg_intake' , 'neg_duration', 'pos')] # sum only the cols available
          ), na.rm = TRUE)) %>%
        dplyr::ungroup() %>%
        dplyr::arrange(dplyr::desc(.data$total_outliers))
#> # A tibble: 133 × 6
#>    cow_id   neg neg_intake   pos not_error total_outliers
#>     <dbl> <int>      <int> <int>     <int>          <int>
#>  1   2052    NA         23    NA       386             23
#>  2   2016    21          1    NA       782             22
#>  3   2040     6         10     5       801             21
#>  4   2090     2         13     4       425             19
#>  5   2007     4         12     1       641             17
#>  6   2017     5          8     3       587             16
#>  7   2037     1         10     5       399             16
#>  8   2027    11          4    NA       487             15
#>  9   2107    NA          6     9       317             15
#> 10   2089     6          6     2       962             14
#> # … with 123 more rows
```
…
Assuming we are using all corrections and the ‘simplified’ data frame we
calculated, we can easily calculate daily intakes:

``` r

daily_intakes <- 
  simplified_final_df  %>% 
  group_by( cow_id, date ) %>% 
  summarise(
    daily_intake_kg_asfed = sum(final_intake_kg, na.rm=TRUE)
  )

daily_intakes
#> # A tibble: 659 × 3
#> # Groups:   cow_id [133]
#>    cow_id date       daily_intake_kg_asfed
#>     <dbl> <date>                     <dbl>
#>  1   2000 2022-01-01                  41.8
#>  2   2000 2022-01-02                  51.4
#>  3   2000 2022-01-03                  49.6
#>  4   2000 2022-01-04                  53  
#>  5   2000 2022-01-05                  49  
#>  6   2001 2022-01-01                  53.4
#>  7   2001 2022-01-02                  48.2
#>  8   2001 2022-01-03                  56.0
#>  9   2001 2022-01-04                  54.6
#> 10   2001 2022-01-05                  44.3
#> # … with 649 more rows
```
…
